mregions.knit
…
or dont (but then mr_names_search() call takes longer)

mr_names_search("iho", q = "Sea")
#> # A tibble: 73 x 6
#>    layer             name_first    name_second id     name                 mrgid
#>    <chr>             <chr>         <chr>       <chr>  <chr>                <chr>
#>  1 MarineRegions:iho MarineRegions iho         iho.3  Great Australian Bi~ 4276
#>  2 MarineRegions:iho MarineRegions iho         iho.4  Tasman Sea           4365
#>  3 MarineRegions:iho MarineRegions iho         iho.6  Savu Sea             4343
#>  4 MarineRegions:iho MarineRegions iho         iho.7  Timor Sea            4344
#>  5 MarineRegions:iho MarineRegions iho         iho.8  Bali Sea             4340
#>  6 MarineRegions:iho MarineRegions iho         iho.9  Coral Sea            4364
#>  7 MarineRegions:iho MarineRegions iho         iho.10 Flores Sea           4341
#>  8 MarineRegions:iho MarineRegions iho         iho.11 Solomon Sea          4361
#>  9 MarineRegions:iho MarineRegions iho         iho.12 Arafura Sea          4347
#> 10 MarineRegions:iho MarineRegions iho         iho.14 Java Sea             4338
#> # ... with 63 more rows
…
