…
or don't (but then `mr_names_search()` call takes longer)


```r
mr_names_search("iho", q = "Sea")
#> # A tibble: 74 × 6
#>                layer    name_first name_second     id                                      name mrgid
#>                <chr>         <chr>       <chr>  <chr>                                     <chr> <chr>
#> 1  MarineRegions:iho MarineRegions         iho  iho.1 Inner Seas off the West Coast of Scotland  4283
#> 2  MarineRegions:iho MarineRegions         iho  iho.2         Mediterranean Sea - Western Basin  4279
#> 3  MarineRegions:iho MarineRegions         iho  iho.3         Mediterranean Sea - Eastern Basin  4280
#> 4  MarineRegions:iho MarineRegions         iho  iho.4                            Sea of Marmara  3369
#> 5  MarineRegions:iho MarineRegions         iho  iho.5                                 Black Sea  3319
#> 6  MarineRegions:iho MarineRegions         iho  iho.6                               Sea of Azov  3320
#> 7  MarineRegions:iho MarineRegions         iho  iho.7        Irish Sea and St. George's Channel  2357
#> 8  MarineRegions:iho MarineRegions         iho iho.10                             Bay of Biscay  2359
#> 9  MarineRegions:iho MarineRegions         iho iho.11                                Celtic Sea  2351
#> 10 MarineRegions:iho MarineRegions         iho iho.14                                 North Sea  2350
#> # ... with 64 more rows
```
…
